[
    {
        "framework": "ubuntu-sdk-13.10",
        "name": "com.ubports.dropping-letters",
        "title": "Dropping Letters game",
        "version": "0.1.2.2",
        "hooks": {
            "dropping-letters": {}
        }
    },
    {
        "framework": "ubuntu-sdk-13.10",
        "name": "com.ubports.stock-ticker-mobile",
        "title": "A stock trading app with charts, news, and management",
        "version": "0.3.7ubuntu1",
        "hooks": {
            "Ticker": {}
        }
    },
    {
        "framework": "ubuntu-sdk-13.10",
        "name": "com.ubports.sudoku",
        "title": "Sudoku game for Ubuntu devices",
        "version": "0.4.2ubuntu2",
        "hooks": {
            "Sudoku": {}
        }
    },
    {
        "framework": "ubuntu-sdk-13.10",
        "name": "com.ubports.developer.xda-app",
        "title": "XDA Developers App",
        "version": "0.4.2ubuntu2"
    }
]
